{
  "display_name": "Julia 1.1.0",
  "argv": [
    "/home/karlo/julia-1.1.0/bin/julia",
    "-i",
    "--startup-file=yes",
    "--color=yes",
    "--project=@.",
    "/home/karlo/.julia/packages/IJulia/gI2uA/src/kernel.jl",
    "{connection_file}"
  ],
  "language": "julia",
  "env": {},
  "interrupt_mode": "signal"
}
