name                           , version                 , description
activitywatch-bin              , 0.12.2-1                , "Log what you do on your computer. Simple extensible no third parties."
adobe-source-pro-fonts         , 20201128-1              , "Meta package of Adobe Source Pro fonts in the official repositories."
alacritty                      , 0.12.0-1                , "A cross-platform GPU-accelerated terminal emulator"
alsa-firmware                  , 1.2.4-3                 , "Firmware binaries for loader programs in alsa-tools and hotplug firmware loader"
alsa-tools                     , 1.2.5-2                 , "Advanced tools for certain sound cards"
alsa-utils                     , 1.2.8-1                 , "Advanced Linux Sound Architecture - Utilities"
android-file-transfer          , 4.2-3                   , "Android MTP client with minimalistic UI"
ant-gtk-theme                  , 1.3.0-5                 , "A flat and light theme with a modern look"
arandr                         , 0.1.11-1                , "Provide a simple visual front end for XRandR 1.2."
arm-none-eabi-binutils         , 2.39-2                  , "A set of programs to assemble and manipulate binary and object files for the ARM EABI (bare-metal) target"
arm-none-eabi-gcc              , 12.2.0-1                , "The GNU Compiler Collection - cross compiler for ARM EABI (bare-metal) target"
arm-none-eabi-newlib           , 4.3.0.20230120-1        , "A C standard library implementation intended for use on embedded systems (ARM bare metal)"
arrow                          , 10.0.1-8                , "Columnar in-memory analytics layer for big data."
aspell-en                      , 2020.12.07-1            , "English dictionary for aspell"
aspell-pt                      , 20220621-1              , "Portuguese and Brazilian Portuguese dictionary for aspell"
atool                          , 0.39.0-8                , "A script for managing file archives of various types"
autoconf                       , 2.71-4                  , "A GNU tool for automatically configuring source code"
automake                       , 1.16.5-2                , "A GNU tool for automatically creating Makefiles"
avr-binutils                   , 2.39-2                  , "A set of programs to assemble and manipulate binary and object files for the AVR architecture"
avr-gcc                        , 12.2.0-1                , "The GNU AVR Compiler Collection"
avr-libc                       , 2.1.0-1                 , "The C runtime library for the AVR family of microcontrollers"
avrdude                        , 1:7.1-1                 , "Download/upload/manipulate the ROM and EEPROM contents of AVR microcontrollers"
awesome-git                    , 4.3.1372.g3a542219f-1   , "Highly configurable framework window manager"
base                           , 3-1                     , "Minimal package set to define a basic Arch Linux installation"
bash-language-server           , 4.9.0-1                 , "Bash language server implementation based on Tree Sitter and its grammar for Bash"
bat                            , 0.23.0-3                , "Cat clone with syntax highlighting and git integration"
bc                             , 1.07.1-4                , "An arbitrary precision calculator language"
betterlockscreen               , 4.0.4-2                 , "A simple minimal lockscreen"
biber                          , 1:2.19-1                , "A Unicode-capable BibTeX replacement for biblatex users"
bibtool                        , 2.68-5                  , "A tool for manipulating BibTeX files"
binutils                       , 2.40-4                  , "A set of programs to assemble and manipulate binary and object files"
bison                          , 3.8.2-5                 , "The GNU general-purpose parser generator"
blueman                        , 2.3.5-1                 , "GTK+ Bluetooth Manager"
bluez-utils                    , 5.66-1                  , "Development and debugging utilities for the bluetooth protocol stack"
brave-bin                      , 1:1.50.114-1            , "Web browser that blocks ads and trackers by default (binary release)"
calcurse                       , 4.8.0-2                 , "A text-based personal organizer"
calibre                        , 6.15.0-1                , "Ebook management application"
ccache                         , 4.8-1                   , "Compiler cache that speeds up recompilation by caching previous compilations"
cheese                         , 43.0-1                  , "Take photos and videos with your webcam with fun graphical effects"
clj-kondo-bin                  , 2023.03.17-1            , "A minimal and opinionated linter for Clojure code that sparks joy."
cljstyle-bin                   , 0.15.0-1                , "A tool for formatting Clojure code"
clojure                        , 1.11.1.1267-1           , "Lisp dialect for the JVM"
cmake                          , 3.26.3-1                , "A cross-platform open-source make system"
colorpicker                    , 1.0.f5d441a-2           , "Click on a pixel on your screen and print its color value in RGB. Written for X11."
copyq                          , 7.0.0-1                 , "Clipboard manager with searchable and editable history"
cpupower                       , 6.2-1                   , "Linux kernel tool to examine and tune power saving related features of your processor"
cronie-selinux                 , 1.6.1-1                 , "Daemon that runs specified programs at scheduled times and related tools with SELinux support"
ctags                          , 1:6.0.0-1               , "Generates an index file of language objects found in source files"
dbeaver                        , 23.0.1-1                , "Free universal SQL Client for developers and database administrators (community edition)"
dconf-editor                   , 43.0-1                  , "GSettings editor for GNOME"
dfu-programmer                 , 1.0.0-1                 , "Programmer for Atmel chips with a USB bootloader"
dfu-util                       , 0.11-2                  , "Tool intended to download and upload firmware using DFU protocol to devices connected over USB"
dialog                         , 1:1.3_20230209-1        , "A tool to display dialog boxes from shell scripts"
difftastic                     , 0.46.0-1                , "An experimental diff tool that compares files based on their syntax"
docker                         , 1:23.0.3-1              , "Pack ship and run any application as a lightweight container"
docker-compose                 , 2.17.2-1                , "Fast isolated development environments using Docker"
dosfstools                     , 4.2-3                   , "DOS filesystem utilities"
dragon-drag-and-drop           , 1.1.1-1                 , "Simple drag-and-drop source/sink for X"
dunst                          , 1.9.1-1                 , "Customizable and lightweight notification-daemon"
dust                           , 0.8.5-1                 , "A more intuitive version of du in rust"
ebook-tools                    , 0.2.2-7                 , "Tools for accessing and converting various ebook file formats"
emacs-git                      , 30.0.50.165688-1        , "GNU Emacs. Development master branch."
entr                           , 5.2-1                   , "Run arbitrary commands when files change"
etckeeper                      , 1.18.20-1               , "Collection of tools to let /etc be stored in a git hg or bzr repository"
exa                            , 0.10.1-7                , "ls replacement"
exfat-utils                    , 1.4.0-1                 , "Utilities for exFAT file system"
expac                          , 10-5                    , "alpm data (pacman database) extraction utility"
fakeroot                       , 1.31-2                  , "Tool for simulating superuser privileges"
fd                             , 8.7.0-1                 , "Simple fast and user-friendly alternative to find"
fdupes                         , 1:2.2.1-2               , "a program for identifying or deleting duplicate files residing within specified directories"
ffmpeg                         , 2:6.0-4                 , "Complete solution to record convert and stream audio and video"
ffmpegthumbnailer              , 2.2.2-5                 , "Lightweight video thumbnailer that can be used by file managers"
file                           , 5.44-3                  , "File type identification utility"
findutils                      , 4.9.0-3                 , "GNU utilities to locate files"
firefox                        , 111.0.1-1               , "Standalone web browser from mozilla.org"
flameshot                      , 12.1.0-1                , "Powerful yet simple to use screenshot software"
flex                           , 2.6.4-5                 , "A tool for generating text-scanning programs"
fonts-et-book                  , 20151005-1              , "A typeface used in Edward Tufte's books (all types)"
foxitreader                    , 2.4.5.0727-1            , "A fast secure and complete PDF viewer"
freerdp                        , 2:2.10.0-3              , "Free implementation of the Remote Desktop Protocol (RDP)"
fzf                            , 0.39.0-1                , "Command-line fuzzy finder"
gawk                           , 5.2.1-2                 , "GNU version of awk"
gcc                            , 12.2.1-2                , "The GNU Compiler Collection - C and C++ frontends"
gcc-fortran                    , 12.2.1-2                , "Fortran front-end for GCC"
gdal                           , 3.6.3-2                 , "A translator library for raster and vector geospatial data formats"
geos                           , 3.11.1-1                , "C/C++ library for computational geometry"
gettext                        , 0.21.1-5                , "GNU internationalization library"
gimp                           , 2.10.34-1               , "GNU Image Manipulation Program"
git                            , 2.40.0-1                , "the fast distributed version control system"
git-delta                      , 0.15.1-2                , "Syntax-highlighting pager for git and diff output"
git-lfs                        , 3.3.0-1                 , "Git extension for versioning large files"
github-cli                     , 2.26.1-1                , "The GitHub CLI"
gnome-control-center           , 43.4.1-3                , "GNOME's main interface to configure various aspects of the desktop"
gnumeric                       , 1.12.55-1               , "A GNOME Spreadsheet Program"
google-chrome                  , 112.0.5615.49-1         , "The popular and trusted web browser by Google (Stable Channel)"
google-earth-pro               , 7.3.6.9285-1            , "3D interface to explore the globe terrain streets buildings and other planets (Pro version)"
gpick                          , 0.3-1                   , "Advanced color picker written in C++ using GTK+ toolkit"
grep                           , 3.10-1                  , "A string search utility"
groff                          , 1.22.4-10               , "GNU troff text-formatting system"
grub                           , 2:2.06.r456.g65bc45963-1, "GNU GRand Unified Bootloader (2)"
gtk-engine-murrine             , 0.98.2-4                , "GTK2 engine to make your desktop look like a 'murrina' an italian word meaning the art glass works done by Venicians glass blowers."
gtk-engines                    , 2.21.0-5                , "Theme engines for GTK+ 2"
gtk-theme-arc-gruvbox-git      , r12.e5ea0ff-2           , "A flat grey gruvboxed theme with transparent elements for GTK 3 GTK 2 and gnome-shell. Latest commit from the master branch on Github."
guile                          , 3.0.9-1                 , "Portable embeddable Scheme implementation written in C"
guvcview                       , 2.0.8-2                 , "Simple GTK+ interface for capturing and viewing video from v4l2 devices"
gzip                           , 1.12-2                  , "GNU compression utility"
highlight                      , 4.4-2                   , "Fast and flexible source code highlighter (CLI version)"
htop                           , 3.2.2-1                 , "Interactive process viewer"
hub-bin                        , 2.14.2-1                , "A command-line tool that makes git easier to use with GitHub"
hunspell                       , 1.7.2-1                 , "Spell checker and morphological analyzer library and program"
hunspell-en_us                 , 2020.12.07-4            , "US English hunspell dictionaries"
hunspell-pt-br                 , 3.2.15-1                , "Brazillian Portuguese grammar spelling and hyphenation checker to hunspell"
i3-wm                          , 4.22-3                  , "Improved dynamic tiling window manager"
indent                         , 2.2.13-1                , "C language source code formatting program"
inkscape                       , 1.2.2-4                 , "Professional vector graphics editor"
inotify-tools                  , 3.22.6.0-2              , "inotify-tools is a C library and a set of command-line programs for Linux providing a simple interface to inotify."
insync                         , 3.8.5.50499-1           , "An unofficial Dropbox Google Drive and OneDrive client that runs on Linux with support for various desktops"
intellij-idea-community-edition, 4:2023.1-1              , "IDE for Java Groovy and other programming languages with advanced refactoring features"
jdk-openjdk                    , 19.0.2.u7-2             , "OpenJDK Java 19 development kit"
jdk15-adoptopenjdk             , 15.0.2.u7-1             , "OpenJDK Java 15 development kit (AdoptOpenJDK build)"
jre-openjdk                    , 19.0.2.u7-2             , "OpenJDK Java 19 full runtime environment"
kitty                          , 0.27.1-1                , "A modern hackable featureful OpenGL-based terminal emulator"
languagetool                   , 6.1-1                   , "An open source language checker"
lazygit                        , 0.37.0-1                , "Simple terminal UI for git commands"
leiningen                      , 2.10.0-1                , "Automate Clojure projects"
lf-git                         , 24.r10.g85aa3b9-1       , "lf is a terminal file manager written in Go"
libgccjit                      , 12.2.1-2                , "Just-In-Time Compilation with GCC backend"
libnotify                      , 0.8.2-1                 , "Library for sending desktop notifications"
libreoffice-still              , 7.4.6-1                 , "LibreOffice maintenance branch"
libtool                        , 2.4.7+4+g1ec8fa28-2     , "A generic library support script"
libxft-bgra-git                , 2.3.4.r113.98b121f-1    , "libXft with BGRA glyph (color emoji) rendering & scaling patches by Maxime Coste"
linux                          , 6.2.10.arch1-1          , "The Linux kernel and modules"
linux-firmware                 , 20230210.bf4115c-1      , "Firmware files for Linux"
linux-headers                  , 6.2.10.arch1-1          , "Headers and scripts for building modules for the Linux kernel"
lscolors-git                   , r462.7271a7a-1          , "Colorize the output of the "ls" shell command via LS_COLORS"
lshw                           , B.02.19.2-5             , "A small tool to provide detailed information on the hardware configuration of the machine."
luajit-lgi                     , 0.9.2-4                 , "LuaJIT bindings for gnome/gobject using gobject-introspection library"
lxappearance                   , 0.6.3-4                 , "Feature-rich GTK+ theme switcher of the LXDE Desktop"
lynx                           , 2.8.9-6                 , "A text browser for the World Wide Web"
m4                             , 1.4.19-3                , "The GNU macro processor"
maim                           , 5.7.4-5                 , "Utility to take a screenshot using imlib2"
make                           , 4.4.1-2                 , "GNU make utility to maintain groups of programs"
man-db                         , 2.11.2-1                , "A utility for reading man pages"
man-pages                      , 6.04-1                  , "Linux man pages"
mdcat                          , 1.1.1-1                 , "Sophisticated Markdown rendering for the terminal"
mediainfo                      , 23.03-1                 , "Supplies technical and tag information about media files (CLI interface)"
meld                           , 3.22.0-1                , "Compare files directories and working copies"
mojave-gtk-theme               , 2022_10_21-1            , "A Mac OSX like theme for GTK 3 GTK 2 and Gnome-Shell which supports GTK 3 and GTK 2 based desktop environments like Gnome Pantheon XFCE Mate etc."
mosh                           , 1.4.0-2                 , "Mobile shell surviving disconnects with local echo and line editing"
mpc                            , 0.34-3                  , "Minimalist command line interface to MPD"
mpd                            , 0.23.12-3               , "Flexible powerful server-side application for playing music"
mpdecimal                      , 2.5.1-1                 , "Package for correctly-rounded arbitrary precision decimal floating point arithmetic"
mpv                            , 1:0.35.1-4              , "a free open source and cross-platform media player"
mu                             , 1.8.13-1                , "Maildir indexer/searcher and Emacs client (mu4e)"
mutt-wizard-git                , 3.2.1.r77.g685674c-1    , "Easily auto-configure neomutt and isync/mpop with safe passwords (IMAP/POP3/SMTP)"
mypaint                        , 2.0.1-2                 , "Fast and easy painting application for digital painters with brush dynamics"
nautilus                       , 43.2-1                  , "Default file manager for GNOME"
nautilus-terminal              , 4.1.0-1                 , "Embedded terminal for Nautilus"
ncdu                           , 2.2.2-2                 , "Disk usage analyzer with an ncurses interface"
ncmpcpp                        , 0.9.2-10                , "Almost exact clone of ncmpc with some new features"
ncspot-bin                     , 0.11.1-1                , "Cross-platform ncurses Spotify client written in Rust inspired by ncmpc and the likes."
nemo                           , 5.6.4-1                 , "Cinnamon file manager (Nautilus fork)"
nemo-preview                   , 5.6.0-1                 , "Quick file previewer for Nemo"
neovim                         , 0.9.0-1                 , "Fork of Vim aiming to improve user experience plugins and GUIs"
nerd-fonts-complete            , 2.1.0-8                 , "Iconic font aggregator collection & patcher. 3600+ icons 50+ patched fonts."
networkmanager                 , 1.42.4-2                , "Network connection manager and user applications"
networkmanager-dispatcher-ntpd , 1.0-7                   , "Dispatcher Script for ntpd"
newsboat                       , 2.31-1                  , "RSS/Atom feed reader for text terminals"
ninja                          , 1.11.1-2                , "Small build system with a focus on speed"
nitrogen                       , 1.6.1-4                 , "Background browser and setter for X windows"
nodejs-lts-gallium             , 16.20.0-1               , "Evented I/O for V8 javascript (LTS release: Gallium)"
nomacs                         , 1:3.17.2206-12          , "A Qt image viewer"
notmuch                        , 0.37-2                  , "Notmuch is not much of an email program"
noto-fonts-emoji               , 20220920-1              , "Google Noto emoji fonts"
npm                            , 8.19.2-1                , "A package manager for javascript"
ntfs-3g                        , 2022.10.3-1             , "NTFS filesystem driver and utilities"
ntp                            , 4.2.8.p15-3             , "Network Time Protocol reference implementation"
obinskit                       , 1.1.4-3                 , "ObinsKit for Anne Pro and Anne Pro 2"
obs-studio                     , 29.0.2-2                , "Free open source software for live streaming and recording"
okular                         , 22.12.3-1               , "Document Viewer"
openssl-1.1                    , 1.1.1.t-1               , "The Open Source toolkit for Secure Sockets Layer and Transport Layer Security"
otf-et-book                    , 20151005-1              , "A typeface used in Edward Tufte's books (OTF)"
otf-symbola                    , 14.00-1                 , "Font for symbol blocks of the Unicode Standard (OTF)"
pacman                         , 6.0.2-6                 , "A library-based package manager with dependency support"
pacman-contrib                 , 1.9.0-1                 , "Contributed scripts and tools for pacman systems"
pamixer                        , 1.6-2                   , "Pulseaudio command-line mixer like amixer"
pandoc-cli                     , 0.1-47                  , "Conversion between documentation formats"
parallel                       , 20230222-1              , "A shell tool for executing jobs in parallel"
patch                          , 2.7.6-9                 , "A utility to apply patch files to original sources"
pdfcrop                        , 0.4b-1                  , "A PDF utility for GNU/Linux that crops the white margins of PDF pages and rescales them to fit a standard size sheet of paper"
pdfjs                          , 3.5.141-1               , "PDF reader in javascript"
pdftk                          , 3.3.3-2                 , "Command-line tool for working with PDFs"
perl-file-mimeinfo             , 0.33-1                  , "Determine file type includes mimeopen and mimetype"
perl-image-exiftool            , 12.50-2                 , "Reader and rewriter of EXIF informations that supports raw files"
picom                          , 10.2-1                  , "X compositor that may fix tearing issues"
pkgconf                        , 1.8.1-1                 , "Package compiler and linker metadata toolkit"
podofo                         , 0.9.8-5                 , "A C++ library to work with the PDF file format"
poppler                        , 23.03.0-1               , "PDF rendering library based on xpdf 3.0"
poppler-glib                   , 23.03.0-1               , "Poppler glib bindings"
preload                        , 0.6.4-7                 , "Makes applications run faster by prefetching binaries and shared objects"
proj                           , 9.2.0-1                 , "Cartographic Projections and Coordinate Transformations Library"
pulseaudio-alsa                , 1:1.2.7.1-2             , "ALSA Configuration for PulseAudio"
pulseeffects-legacy            , 4.8.7-1                 , "Audio Effects for Pulseaudio Applications without pipewire"
pulsemixer                     , 1.5.1-3                 , "CLI and curses mixer for pulseaudio"
pv                             , 1.6.20-2                , "A terminal-based tool for monitoring the progress of data through a pipeline."
python-adblock                 , 0.6.0-1                 , "Brave's adblock library in Python"
python-nautilus                , 4.0-1                   , "Python bindings for the Nautilus Extension API"
python-pip                     , 23.0.1-1                , "The PyPA recommended tool for installing Python packages"
python-pyshp                   , 2.3.1-1                 , "Python read/write support for ESRI Shapefile format"
qgis                           , 3.30.0-2                , "Geographic Information System (GIS) that supports vector raster & database formats"
qpdf                           , 11.3.0-1                , "QPDF: A Content-Preserving PDF Transformation System"
qt5-tools                      , 5.15.8+kde+r1-3         , "A cross-platform application and UI framework (Development Tools QtHelp)"
qt5ct                          , 1.7-1                   , "Qt5 Configuration Utility"
qutebrowser-git                , 2.4.0.r258.g4c745a298-1 , "A keyboard-driven vim-like browser based on PyQt5"
r                              , 4.2.3-1                 , "Language and environment for statistical computing and graphics"
ranger                         , 1.9.3-6                 , "Simple vim-like file manager"
readability-cli                , 2.3.5-1                 , "Firefox Reader Mode in your terminal! - CLI tool for Mozilla's Readability library"
redshift-gtk-git               , 1.12.r40.g490ba2a-1     , "Adjusts the color temperature of your screen according to your surroundings (development version)"
reflector                      , 2021.11-6               , "A Python 3 module and script to retrieve and filter the latest Pacman mirror list."
remmina                        , 1:1.4.29-1              , "remote desktop client written in GTK+"
remmina-plugin-rdesktop        , 1.3.0.0-3               , "A protocol plugin for Remmina to open a RDP connection with rdesktop."
rescuetime2                    , 2.16.5.1-2              , "Application time-tracking for Linux. Stable version"
ripgrep                        , 13.0.0-3                , "A search tool that combines the usability of ag with the raw speed of grep"
ripgrep-all                    , 0.9.6-4                 , "rga: ripgrep but also search in PDFs E-Books Office documents zip tar.gz etc."
riscv64-elf-binutils           , 2.39-1                  , "A set of programs to assemble and manipulate binary and object files for the RISCV64 (bare-metal) target"
riscv64-elf-gcc                , 12.2.0-1                , "The GNU Compiler Collection - cross compiler for RISCV64 (bare-metal) target"
riscv64-elf-newlib             , 4.1.0-3                 , "A C standard library implementation intended for use on embedded systems (RISCV64 bare metal)"
rm-improved                    , 0.13.1-1                , "Rm ImProved (rip) is a command-line deletion tool focused on safety ergonomics and performance. Use it as a safer alternative to rm."
rstudio-desktop-daily-bin      , 2023.05.0.daily.191-1   , "An integrated development environment (IDE) for R (binary version from RStudio official repository)"
rsync                          , 3.2.7-4                 , "A fast and versatile file copying tool for remote and local files"
ruby-xdg5                      , 5.3.0-2                 , "Provides a Ruby implementation of the XDG Base Directory Specification (version 5.x)"
rust-analyzer                  , 20230403-1              , "Rust compiler front-end for IDEs"
rustup                         , 1.25.2-1                , "The Rust toolchain installer"
sad                            , 0.4.22-1                , "Space Age seD"
scrot                          , 1.8.1-1                 , "Simple command-line screenshot utility for X"
sed                            , 4.9-3                   , "GNU stream editor"
shadowfox-updater              , 2.2.0-1                 , "An auto-updater for ShadowFox"
shellcheck                     , 0.9.0-35                , "Shell script analysis tool"
shotgun                        , 2.3.1-1                 , "Minimal X screenshot utility"
simplescreenrecorder           , 0.4.4-2                 , "A feature-rich screen recorder that supports X11 and OpenGL."
slock                          , 1.5-1                   , "A simple screen locker for X"
socat                          , 1.7.4.4-1               , "Multipurpose relay"
spotify                        , 1:1.2.8.923-1           , "A proprietary music streaming service"
sqlitebrowser                  , 3.12.2-3                , "SQLite Database browser is a light GUI editor for SQLite databases built on top of Qt"
streamlink                     , 5.3.1-1                 , "CLI program that launches streams from various streaming services in a custom video player (livestreamer fork)"
stylua                         , 0.17.1-1                , "Code formatter for Lua"
sudo                           , 1.9.13.p3-1             , "Give certain users the ability to run some commands as root"
surfraw                        , 2.3.0-3                 , "Shell Users' Revolutionary Front Rage Against the Web"
sushi                          , 43.0-1                  , "A quick previewer for Nautilus"
sxhkd                          , 0.6.2-3                 , "Simple X hotkey daemon"
sxiv                           , 26-1                    , "Simple X Image Viewer"
tad-bin                        , 0.12.0-1                , "Desktop application for viewing and analyzing tabular data such as CSV files"
task-spooler                   , 1.0.2-2                 , "Queue up tasks from the shell for batch execution"
tesseract                      , 5.3.1-1                 , "An OCR program"
tesseract-data-eng             , 2:4.1.0-3               , "Tesseract OCR data (eng)"
texinfo                        , 7.0.3-1                 , "GNU documentation system for on-line information and printed output"
texlive-core                   , 2023.66587-2            , "TeX Live core distribution"
texlive-latexextra             , 2023.66551-1            , "TeX Live - Large collection of add-on packages for LaTeX"
tk                             , 8.6.13-1                , "A windowing toolkit for use with tcl"
tmux                           , 3.3_a-3                 , "Terminal multiplexer"
tmuxinator                     , 3.0.5-2                 , "Manage complex tmux sessions easily"
toggldesktop                   , 7.5.363-3               , "Toggl time tracking software"
tor-browser                    , 12.0.4-1                , "Tor Browser Bundle: anonymous browsing using Firefox and Tor"
transmission-gtk               , 4.0.2-1                 , "Fast easy and free BitTorrent client (GTK+ GUI)"
ttc-iosevka                    , 22.0.0-1                , "Typeface family designed for coding terminal use and technical documents."
ttf-et-book                    , 20151005-1              , "A typeface used in Edward Tufte's books (TTF)"
ttf-linux-libertine            , 5.3.0-9                 , "Serif (Libertine) and Sans Serif (Biolinum) OpenType fonts with large Unicode coverage"
ttf-roboto                     , 2.138-4                 , "Google's signature family of fonts"
ttf-unifont                    , 15.0.01-1               , "TrueType version of the GNU Unifont"
type1-et-book                  , 20151005-1              , "A typeface used in Edward Tufte's books (Type1)"
udunits                        , 2.2.28-3                , "A tool for calculations of physical quantities"
ueberzug                       , 18.1.9-4                , "Command line util which allows to display images in combination with X11"
unclutter                      , 1:1.6-3                 , "A small program for hiding the mouse cursor"
unixodbc                       , 2.3.11-1                , "ODBC is an open specification for providing application developers with a predictable API with which to access Data Sources"
unrar                          , 1:6.2.6-1               , "The RAR uncompression program"
unzip                          , 6.0-19                  , "For extracting and viewing files in .zip archives"
usbutils                       , 015-2                   , "A collection of USB tools to query connected USB devices"
v4l2loopback-dkms              , 0.12.7-2                , "v4l2-loopback device – module sources"
vi                             , 1:070224-6              , "The original ex/vi text editor"
vim                            , 9.0.1420-1              , "Vi Improved a highly configurable improved version of the vi text editor"
vimiv                          , 0.9.1-5                 , "Image viewer with vim-like keybindings"
visual-studio-code-bin         , 1.77.1-1                , "Visual Studio Code (vscode): Editor for building and debugging modern web and cloud applications (official binary version)"
vivaldi                        , 5.7.2921.65-1           , "An advanced browser made with the power user in mind."
vmtouch                        , 1.3.1-1                 , "Portable file system cache diagnostics and control"
wakatime                       , 1:1.60.4-1              , "Command line interface used by all WakaTime text editor plugins"
wget                           , 1.21.3-1                , "Network utility to retrieve files from the Web"
which                          , 2.21-6                  , "A utility to show the full path of commands"
wireless_tools                 , 30.pre9-3               , "Tools allowing to manipulate the Wireless Extensions"
wmctrl                         , 1.07-6                  , "Control your EWMH compliant window manager from command line"
wmname                         , 0.1-5                   , "A utility to set the name of your window manager"
wtfutil-bin                    , 0.43.0-1                , "Personal information dashboard for your terminal"
xcape                          , 1.2-4                   , "Configure modifier keys to act as other keys when pressed and released on their own"
xclip                          , 0.13-3                  , "Command line interface to the X11 clipboard"
xcompmgr                       , 1.1.9-1                 , "Composite Window-effects manager for X.org"
xdg-utils                      , 1.1.3+25+g8ae0263-1     , "Command line tools that assist applications with a variety of desktop integration tasks"
xdo                            , 0.5.7-2                 , "Utility for performing actions on windows in X"
xdotool                        , 3.20211022.1-1          , "Command-line X11 automation tool"
xorg-font-util                 , 1.4.0-1                 , "X.Org font utilities"
xorg-server                    , 21.1.8-1                , "Xorg X server"
xorg-xbacklight                , 1.2.3-3                 , "RandR-based backlight control application"
xorg-xdpyinfo                  , 1.3.3-4                 , "Display information utility for X"
xorg-xev                       , 1.2.5-1                 , "Print contents of X events"
xorg-xinit                     , 1.4.2-1                 , "X.Org initialisation program"
xorg-xinput                    , 1.6.3-3                 , "Small commandline tool to configure devices"
xorg-xsetroot                  , 1.1.3-1                 , "Classic X utility to set your root window background to a given pattern or color"
xorg-xwininfo                  , 1.1.5-3                 , "Command-line utility to print information about windows on an X server"
xwallpaper                     , 0.7.4-1                 , "Wallpaper setting utility for X"
yay-bin                        , 12.0.3-1                , "Yet another yogurt. Pacman wrapper and AUR helper written in go. Pre-compiled."
youtube-dl                     , 2021.12.17-1            , "A command-line program to download videos from YouTube.com and a few more sites"
zathura                        , 0.5.2-2                 , "Minimalistic document viewer"
zathura-pdf-mupdf              , 0.4.0-2                 , "PDF support for Zathura (MuPDF backend) (Supports PDF ePub and OpenXPS)"
zeal                           , 0.6.1-3                 , "An offline API documentation browser"
zoom                           , 5.14.2-1                , "Video Conferencing and Web Conferencing Service"
zotero-bin                     , 6.0.23-1                , "Zotero Standalone. Is a free easy-to-use tool to help you collect organize cite and share your research sources."
zsh                            , 5.9-3                   , "A very advanced and programmable command interpreter (shell) for UNIX"
