/home/karlo/.local/lib/npm/lib
├── @emacs-grammarly/keytar-cli@0.1.4
├── bash-language-server@1.17.0
├── bash@0.0.1
├── commitizen@4.2.2
├── diff-so-fancy@1.3.0
├── git-split-diffs@0.10.0
├── gtop@1.0.2
├── neovim@4.10.0
├── npm@6.14.9
├── readability-cli@2.3.0
├── tldr@3.3.5
└── vim-language-server@2.2.2

